<svg width="26" height="12" viewBox="0 0 26 12" fill="none" xmlns="http://www.w3.org/2000/svg">
<path d="M1 1L7.5942 7.04468C10.1608 9.39738 11.4441 10.5737 13 10.5737C14.5559 10.5737 15.8392 9.39738 18.4058 7.04469L25 1" stroke="#3D4247"/>
</svg>
