<svg width="1037" height="1036" viewBox="0 0 1037 1036" fill="none" xmlns="http://www.w3.org/2000/svg">
<path opacity="0.1" d="M433.11 889.631L357.042 965.7M449.694 857.482L324.893 982.283M458.336 833.274L300.685 990.925M463.422 812.622L280.032 996.011M466.512 792.409L259.82 999.101M467.724 775.633L243.042 1000.31M467.779 760.011L227.421 1000.37M466.891 745.333L212.743 999.48M465.196 731.462L198.872 997.786M462.797 718.295L185.705 995.387M459.771 705.755L173.165 992.36M455.983 693.199L160.609 988.573M451.844 681.771L149.181 984.434M447.225 670.825L138.235 979.814M442.155 660.329L127.739 974.744M436.658 650.26L117.67 969.247M430.753 640.599L108.009 963.343M424.456 631.33L98.7402 957.045M417.777 622.443L89.8525 950.367M410.726 613.928L81.3381 943.315M403.306 605.782L73.1918 935.896M395.522 598.001L65.4104 928.111M386.537 589.863L57.2724 919.127M377.982 582.852L50.2612 910.572M369.054 576.214L43.6234 901.644M359.743 569.959L37.3684 892.333M350.038 564.098L31.5071 882.628M339.924 558.646L26.0557 872.513M329.38 553.624L21.0334 861.97M318.944 549.272L16.6812 851.534M307.488 545.163L12.5722 840.078M295.512 541.573L8.98257 828.101M282.967 538.552L5.96121 815.557M269.794 536.159L3.56836 802.383M255.916 534.471L1.88033 788.506M241.183 533.589C241.123 533.681 241.053 533.767 240.973 533.847L0.999781 773.82M225.571 533.656C225.523 533.722 225.467 533.787 225.407 533.847L1.06394 758.19M208.811 534.877L2.28634 741.402M190.514 537.608L5.01779 723.104M170.102 542.455L9.86375 702.692M143.657 551.777L19.187 676.247M111.386 568.482L35.8913 643.976" stroke="#3D4247"/>
<circle cx="623.669" cy="413.331" r="412.831" transform="rotate(-180 623.669 413.331)" stroke="#3D4247"/>
<path d="M458.48 838.688C458.48 729.994 546.993 641.876 656.183 641.876C765.373 641.876 853.886 729.994 853.886 838.688C853.886 947.382 765.373 1035.5 656.183 1035.5C546.993 1035.5 458.48 947.382 458.48 838.688Z" stroke="#3D4247"/>
</svg>
