<svg width="520" height="520" fill="none" xmlns="http://www.w3.org/2000/svg">
<symbol viewBox="0 0 520 520" id="img">
<path fill-rule="evenodd" clip-rule="evenodd" d="M11.6957 182.495C11.9114 181.804 12.1299 181.114 12.3511 180.425L180.343 12.3761C181.032 12.1546 181.722 11.9359 182.413 11.7199L11.6957 182.495ZM2.79794 221.325C2.88112 220.768 2.96607 220.211 3.05278 219.655L219.57 3.06434C220.126 2.97745 220.683 2.89231 221.24 2.80894L2.79794 221.325ZM0 254.053C0.0109949 253.568 0.0233122 253.085 0.0369486 252.601L252.515 0.0374331C252.999 0.0236352 253.482 0.0111563 253.966 0L0 254.053ZM0.93232 283.049C0.894323 282.615 0.857393 282.18 0.821532 281.745L281.659 0.812275C282.094 0.84799 282.529 0.884775 282.963 0.922626L0.93232 283.049ZM4.58692 309.322C4.51102 308.926 4.43602 308.529 4.36191 308.133L308.048 4.34371C308.445 4.41768 308.841 4.49254 309.237 4.56831L4.58692 309.322ZM10.4151 333.421C10.308 333.056 10.2018 332.691 10.0964 332.325L332.242 10.0699C332.608 10.1752 332.973 10.2813 333.338 10.3882L10.4151 333.421ZM18.9238 357.831C18.7876 357.495 18.6521 357.159 18.5173 356.823L356.743 18.4825C357.079 18.6172 357.415 18.7526 357.751 18.8886L18.9238 357.831ZM28.3183 378.362C28.1587 378.05 27.9997 377.737 27.8414 377.425L377.348 27.7995C377.661 27.9578 377.973 28.1167 378.285 28.2762L28.3183 378.362ZM39.1342 397.471C38.9532 397.181 38.7727 396.89 38.5927 396.599L396.526 38.5444C396.817 38.7242 397.108 38.9046 397.398 39.0856L39.1342 397.471ZM51.2692 415.261C51.068 414.991 50.8673 414.72 50.6671 414.449L414.38 50.6127C414.651 50.8128 414.922 51.0135 415.192 51.2146L51.2692 415.261ZM64.6583 431.796C64.4377 431.545 64.2176 431.294 63.998 431.043L430.978 63.938C431.23 64.1575 431.481 64.3776 431.732 64.5981L64.6583 431.796ZM79.2669 447.112C79.0273 446.88 78.7881 446.648 78.5493 446.415L446.356 78.4842C446.588 78.7228 446.821 78.962 447.052 79.2015L79.2669 447.112ZM95.0874 461.215C94.8286 461.002 94.5703 460.789 94.3123 460.576L460.521 94.2424C460.735 94.5003 460.948 94.7586 461.161 95.0173L95.0874 461.215ZM113.024 474.698C112.744 474.506 112.465 474.313 112.187 474.12L474.072 112.112C474.265 112.391 474.458 112.67 474.65 112.949L113.024 474.698ZM131.417 486.227C131.117 486.056 130.817 485.884 130.518 485.712L485.67 130.44C485.842 130.739 486.014 131.039 486.185 131.339L131.417 486.227ZM151.172 496.394C150.85 496.246 150.528 496.096 150.206 495.946L495.911 150.124C496.061 150.446 496.211 150.768 496.359 151.09L151.172 496.394ZM172.411 505.077C172.064 504.953 171.718 504.828 171.371 504.702L504.674 171.286C504.8 171.633 504.925 171.979 505.049 172.326L172.411 505.077ZM195.316 512.093C194.941 511.997 194.567 511.9 194.193 511.802L511.782 194.105C511.88 194.479 511.977 194.854 512.073 195.229L195.316 512.093ZM220.156 517.174C219.748 517.111 219.34 517.047 218.933 516.982L516.971 218.844C517.035 219.251 517.099 219.659 517.162 220.066L220.156 517.174ZM247.338 519.911C246.889 519.89 246.441 519.867 245.992 519.843L519.84 245.902C519.864 246.35 519.887 246.799 519.909 247.248L247.338 519.911ZM277.526 519.642C277.023 519.675 276.52 519.707 276.017 519.737L519.745 275.927C519.714 276.43 519.682 276.934 519.649 277.436L277.526 519.642ZM312.063 515.022C311.475 515.141 310.886 515.259 310.297 515.374L515.393 310.209C515.278 310.798 515.161 311.387 515.042 311.974L312.063 515.022ZM354.416 502.584C353.653 502.881 352.888 503.174 352.122 503.464L503.498 352.037C503.208 352.804 502.915 353.568 502.618 354.331L354.416 502.584ZM428.905 457.998C426.324 460.202 423.699 462.356 421.032 464.459L464.516 420.96C462.414 423.628 460.261 426.254 458.058 428.836L428.905 457.998ZM128.774 35.448L35.4053 128.849C36.092 127.675 36.7877 126.508 37.4922 125.347L125.273 37.5361C126.434 36.8312 127.601 36.1351 128.774 35.448Z"/>
</symbol>
</svg>
