<svg width="82" height="27" viewBox="0 0 82 27" fill="none" xmlns="http://www.w3.org/2000/svg">
<path d="M23.9563 22.0553C26.0961 22.6598 27.5425 21.7893 28.995 20.8734C29.9423 20.2689 30.2292 19.6644 30.0918 18.4553C29.518 13.2986 29.7092 8.12378 30.2531 2.9671C30.4085 1.49808 31.2812 0.603365 32.4467 0.548957C33.6122 0.494548 34.4401 1.30462 34.5805 2.9278C34.8286 5.80841 34.2817 8.67089 34.0516 11.5182C33.8752 13.5888 33.6302 15.6533 33.409 17.7178C33.3032 18.6918 33.5018 19.6749 33.9768 20.5288C34.4341 21.3812 35.1723 21.6623 36.0688 21.5747C36.4653 21.5542 36.8462 21.4127 37.1616 21.1688C37.4769 20.9249 37.7117 20.5901 37.835 20.2084C38.3969 18.7213 37.9695 17.5606 36.6038 16.8835C35.5936 16.3757 35.241 15.4266 35.6654 14.3172C36.0897 13.2079 36.8608 12.8059 37.9605 13.2261C38.8989 13.5827 39.7776 14.0936 40.71 14.4654C43.0769 15.4024 45.3273 15.4084 47.5447 13.8608C49.29 12.6518 51.2296 12.2346 53.196 13.5193C53.3022 13.5964 53.4177 13.6594 53.5397 13.7067C55.5719 14.3686 55.5779 14.3686 55.2611 16.4271C55.0669 17.6936 54.8278 18.954 54.6634 20.2205C54.5947 20.7314 54.4662 21.3268 55.0071 21.6744C55.548 22.022 56.1009 21.8044 56.6239 21.5445C57.5718 21.0849 58.3237 20.2944 58.7411 19.3185C59.1584 18.3426 59.2131 17.2471 58.8951 16.2336C58.7666 15.8014 58.4021 15.7772 58.1152 15.611C57.3053 15.1364 56.6747 14.5167 56.8689 13.4951C57.0542 12.5278 57.7864 12.1228 58.7158 12.15C59.445 12.1742 59.4331 11.6301 59.5257 11.1827C59.8094 9.5711 60.2955 8.00273 60.9722 6.51572C61.7851 4.85929 62.9775 3.9011 63.874 4.32126C65.2936 4.98322 65.192 6.38877 65.1442 7.6462C65.0573 9.05997 64.788 10.4562 64.3432 11.7994C64.143 12.4492 64.2864 12.7062 64.9648 12.6306C65.0961 12.6196 65.2281 12.6196 65.3593 12.6306C66.0855 12.6669 67.006 12.4855 67.2122 13.4528C67.4065 14.3596 66.8237 15.0548 66.0736 15.5233C65.3814 15.925 64.6139 16.1762 63.8202 16.2608C63.4437 16.3183 63.0283 16.282 62.7115 16.5873C62.06 17.216 62.2304 19.9122 63.0104 21.0155C63.6469 21.9223 64.7317 22.0674 65.9451 21.4236C66.9552 20.8885 67.4095 20.2659 67.3288 18.9389C67.0927 15.1424 69.9646 12.289 73.2251 12.821C76.3392 13.3288 77.7079 16.5117 76.0702 19.4498C75.5054 20.4714 74.6566 21.218 73.5748 21.9555C74.9734 22.5994 76.112 22.2578 77.1969 21.6926C77.8814 21.3014 78.5448 20.8736 79.1842 20.411C79.9254 19.9243 80.6606 19.8336 81.321 20.5288C81.9815 21.2241 81.7454 21.9404 81.2792 22.5812C79.8059 24.6064 77.6422 25.2382 75.3021 25.4286C73.1594 25.6039 71.0883 25.3682 69.4147 23.7903C68.8798 23.2855 68.566 23.7057 68.1835 23.9747C66.0437 25.4649 63.5841 26.009 61.3846 24.7183C59.8903 23.8508 59.1014 23.9717 57.7356 24.7183C55.9425 25.7097 53.9043 25.7248 52.2367 24.1954C51.639 23.6331 51.3252 24.0775 50.9008 24.3193C48.3457 25.7762 45.5962 25.2744 44.2992 23.0951C43.9862 22.5846 43.7802 22.0146 43.6938 21.4203C43.6075 20.826 43.6426 20.2202 43.7971 19.6402C44.0422 18.679 43.8509 18.2256 42.781 18.286C42.276 18.3132 41.7619 18.15 41.1344 18.0563C41.1702 18.283 41.1822 18.4402 41.221 18.5913C42.3537 23.0679 37.7304 26.3082 33.7497 24.9994C33.0309 24.7858 32.4011 24.3399 31.9566 23.7299C31.592 23.213 31.3918 23.0437 30.7881 23.5394C28.3674 25.5253 25.5163 25.8246 22.5935 25.22C18.054 24.283 15.9291 18.3797 19.4197 14.2205C20.914 12.4341 23.9742 12.2709 25.7614 13.7127C27.3184 14.9701 27.5844 17.6573 26.3591 19.6613C25.8062 20.5742 24.9694 21.2089 23.9563 22.0553ZM51.899 17.5968C51.9767 16.95 51.899 16.412 51.0025 16.3878C49.296 16.3183 47.3146 18.0986 47.2519 19.8004C47.207 21.0729 47.9273 21.6654 49.1645 21.3722C50.862 20.9581 51.8422 19.616 51.896 17.5968H51.899ZM21.0694 19.1082C21.3892 19.3349 20.7705 20.4079 21.8584 20.151C22.7549 19.9364 23.7292 18.289 23.7172 17.3188C23.7172 16.9047 23.6575 16.5359 23.2391 16.3183C22.7639 16.0674 22.3814 16.2911 22.0437 16.5812C21.3473 17.2099 21.1561 18.0744 21.0664 19.1173L21.0694 19.1082ZM73.3237 17.222C73.3383 17.0365 73.2974 16.8508 73.2062 16.6891C73.1151 16.5274 72.978 16.3971 72.8127 16.3152C72.4003 16.0825 72.0506 16.2639 71.7249 16.4936C70.9001 17.0739 70.398 18.951 70.7925 19.8699C70.9329 20.2024 71.0734 20.3505 71.4709 20.1722C72.2837 19.8246 73.3477 18.2316 73.3208 17.2341L73.3237 17.222Z" fill="#FFF"/>
<path d="M4.02299 6.51597C5.75633 4.65097 7.64807 3.63233 10.0479 3.66558C13.1171 3.7079 15.472 5.09531 16.3775 7.48927C16.9058 8.87713 17.0175 10.3918 16.6985 11.8435C16.3795 13.2953 15.6441 14.6196 14.5844 15.6505C13.9023 16.3416 13.0792 16.8739 12.1727 17.2102C11.058 17.5729 11.2462 18.0414 11.835 18.779C13.1086 20.2962 14.5438 21.6667 16.1146 22.8656C16.8766 23.4702 17.7612 24.0475 17.032 25.2384C16.4164 26.245 15.4511 26.4233 14.178 25.6616C11.5314 24.0868 9.25048 21.955 7.48968 19.4107C7.24779 19.0446 7.0473 18.6523 6.89197 18.2409C6.19266 16.4968 7.08025 15.1669 8.96003 15.1245C12.1189 15.052 14.2676 11.2344 12.7166 8.44141C11.9934 7.13864 10.7502 6.90287 9.45015 6.93007C7.68692 6.95123 6.3391 7.75526 5.56507 9.39355C4.91683 10.8485 4.55544 12.4173 4.50116 14.0122C4.27028 17.4956 4.39044 20.9937 4.85977 24.4525C5.03012 25.5981 4.58782 26.112 3.56575 26.3175C2.197 26.5926 1.29447 26.1815 1.06435 25.0933C0.968687 24.5275 0.932618 23.953 0.956761 23.3795C0.974693 17.7664 1.01654 12.1533 0.0841175 6.58851C-0.137033 5.2676 0.526412 4.40009 1.74872 4.20664C3.13838 3.98599 3.52091 4.28523 3.84069 5.84191C3.88551 6.00211 3.93632 6.16836 4.02299 6.51597Z" fill="#FFF"/>
</svg>
