<svg width="1671" height="17" viewBox="0 0 1671 17" fill="none" xmlns="http://www.w3.org/2000/svg">
<path d="M1 16C45.0108 14.6233 90.7049 14.6806 134.92 13.5161C164.251 12.7435 194.484 12.3306 224.2 11.8691C252.75 11.4257 281.162 11.3252 309.76 11.0861C348.918 10.7587 388.988 12.1072 427.56 11.0591C470.101 9.90311 510.567 8.19028 553.626 7.37369C566.812 7.12364 580.583 6.8695 593.926 7.0632C603.978 7.20911 613.017 7.49519 623.273 7.49519C652.858 7.49519 682.263 7.98118 712.036 7.98118C745.701 7.98118 779.319 8.70974 812.786 9.14215C879.728 10.0071 950.13 9.6738 1016.97 8.95316C1046 8.64018 1075 8.32472 1104.08 8.10267C1135.25 7.86469 1165.89 7.02513 1196.98 6.8202C1245.68 6.49918 1293.86 7.43697 1342.37 7.26569C1365.74 7.18318 1389.47 7.18298 1412.74 7.49519C1435.46 7.79999 1457.23 8.68316 1480.22 8.68316C1528.82 8.68316 1577.16 6.11948 1623.95 4.57925C1663.46 3.27878 1703.39 2.24219 1743.51 1.31232C1746.37 1.24597 1773.4 0.581542 1760.56 1.42032" stroke="#3D4247" stroke-width="2" stroke-linecap="round" stroke-linejoin="round"/>
</svg>
