<svg width="481" height="150" viewBox="0 0 481 150" xmlns="http://www.w3.org/2000/svg">
<symbol viewBox="0 0 481 150" id="img">
<path fill="none" d="M1 29L27.4645 2.53554C29.4171 0.582915 32.5829 0.582913 34.5355 2.53553L57.4645 25.4645C59.4171 27.4171 62.5829 27.4171 64.5355 25.4645L87.4645 2.53554C89.4171 0.582915 92.5829 0.582913 94.5355 2.53553L117.464 25.4645C119.417 27.4171 122.583 27.4171 124.536 25.4645L128.5 21.5M1 89L27.4645 62.5355C29.4171 60.5829 32.5829 60.5829 34.5355 62.5355L57.4645 85.4645C59.4171 87.4171 62.5829 87.4171 64.5355 85.4645L87.4645 62.5355C89.4171 60.5829 92.5829 60.5829 94.5355 62.5355L117.464 85.4645C119.417 87.4171 122.583 87.4171 124.536 85.4645L147.464 62.5355C149.417 60.5829 152.583 60.5829 154.536 62.5355L177.464 85.4645C179.417 87.4171 182.583 87.4171 184.536 85.4645L207.464 62.5355C209.417 60.5829 212.583 60.5829 214.536 62.5355L237.464 85.4645C239.417 87.4171 242.583 87.4171 244.536 85.4645L267.464 62.5355C269.417 60.5829 272.583 60.5829 274.536 62.5355L297.464 85.4645C299.417 87.4171 302.583 87.4171 304.536 85.4645L327.464 62.5355C329.417 60.5829 332.583 60.5829 334.536 62.5355L338.5 66.5M1 149L2.5 147.5M541 29L514.536 2.53553C512.583 0.582913 509.417 0.582915 507.464 2.53554L484.536 25.4645C482.583 27.4171 479.417 27.4171 477.464 25.4645L454.536 2.53553C452.583 0.582913 449.417 0.582915 447.464 2.53554L424.536 25.4645C422.583 27.4171 419.417 27.4171 417.464 25.4645L394.536 2.53553C392.583 0.582913 389.417 0.582915 387.464 2.53554L364.536 25.4645C362.583 27.4171 359.417 27.4171 357.464 25.4645L334.536 2.53553C332.583 0.582913 329.417 0.582915 327.464 2.53554L304.536 25.4645C302.583 27.4171 299.417 27.4171 297.464 25.4645L274.536 2.53553C272.583 0.582913 269.417 0.582915 267.464 2.53554L244.536 25.4645C242.583 27.4171 239.417 27.4171 237.464 25.4645L214.536 2.53553C212.583 0.582913 209.417 0.582915 207.464 2.53554L184.536 25.4645C182.583 27.4171 179.417 27.4171 177.464 25.4645L154.536 2.53553C152.583 0.582913 149.417 0.582913 147.464 2.53553L132 18M541 89L514.536 62.5355C512.583 60.5829 509.417 60.5829 507.464 62.5355L484.536 85.4645C482.583 87.4171 479.417 87.4171 477.464 85.4645L454.536 62.5355C452.583 60.5829 449.417 60.5829 447.464 62.5355L424.536 85.4645C422.583 87.4171 419.417 87.4171 417.464 85.4645L394.536 62.5355C392.583 60.5829 389.417 60.5829 387.464 62.5355L364.536 85.4645C362.583 87.4171 359.417 87.4171 357.464 85.4645L353.5 81.5M541 149L514.536 122.536C512.583 120.583 509.417 120.583 507.464 122.536L484.536 145.464C482.583 147.417 479.417 147.417 477.464 145.464L454.536 122.536C452.583 120.583 449.417 120.583 447.464 122.536L424.536 145.464C422.583 147.417 419.417 147.417 417.464 145.464L394.536 122.536C392.583 120.583 389.417 120.583 387.464 122.536L364.536 145.464C362.583 147.417 359.417 147.417 357.464 145.464L334.536 122.536C332.583 120.583 329.417 120.583 327.464 122.536L304.536 145.464C302.583 147.417 299.417 147.417 297.464 145.464L274.536 122.536C272.583 120.583 269.417 120.583 267.464 122.536L244.536 145.464C242.583 147.417 239.417 147.417 237.464 145.464L214.536 122.536C212.583 120.583 209.417 120.583 207.464 122.536L184.536 145.464C182.583 147.417 179.417 147.417 177.464 145.464L154.536 122.536C152.583 120.583 149.417 120.583 147.464 122.536L124.536 145.464C122.583 147.417 119.417 147.417 117.464 145.464L94.5355 122.536C92.5829 120.583 89.4171 120.583 87.4645 122.536L64.5355 145.464C62.5829 147.417 59.4171 147.417 57.4645 145.464L34.5355 122.536C32.5829 120.583 29.4171 120.583 27.4645 122.536L24.875 125.125M346 74L349.75 77.75M6.5 143.5L18.75 131.25" stroke="#3D4247" stroke-width="2" stroke-linecap="round" stroke-linejoin="round"/>
</symbol>
</svg>
